host/example_trace.vcd
$timescale
  10.000000 ns
$end
$var wire 32 0 pdm $end
$var wire 1 255 Missing_Data $end
$enddefinitions $end
#479
b0 0
#1337
b0 0
#2378
b0 0
#3419
b0 0
#4461
b0 0
#5504
b0 0
#6545
b0 0
#7585
b0 0
#8627
b0 0
#9670
b0 0
#10711
b0 0
#11752
b0 0
#12794
b0 0
#13837
b0 0
#14878
b0 0
#15919
b0 0
#16961
b0 0
#18004
b0 0
#19045
b0 0
#20085
b0 0
#21127
b0 0
#22170
b0 0
#23211
b0 0
#24252
b0 0
#25294
b0 0
#26337
b0 0
#27378
b0 0
#28419
b0 0
#29461
b0 0
#30504
b0 0
#31545
b0 0
#32585
b0 0
#33627
b0 0
#34671
b0 0
#35711
b0 0
#36752
b0 0
#37794
b0 0
#38837
b0 0
#39878
b0 0
#40919
b0 0
#41960
b0 0
#43004
b0 0
#44045
b0 0
#45085
b0 0
#46127
b0 0
#47170
b0 0
#48211
b0 0
#49252
b0 0
#50294
b0 0
#51337
b0 0
#52378
b0 0
#53419
b0 0
#54461
b0 0
#55504
b0 0
#56545
b0 0
#57585
b0 0
#58627
b0 0
#59670
b0 0
#60711
b0 0
#61752
b0 0
#62794
b0 0
#63837
b0 0
#64878
b0 0
#65919
b0 0
#66960
b0 0
#68004
b0 0
#69045
b0 0
#70085
b0 0
#71127
b0 0
#72170
b0 0
#73211
b0 0
#74252
b0 0
#75294
b0 0
#76337
b0 0
#77378
b0 0
#78419
b0 0
#79461
b1010101000000000000000000000000 0
#80504
b10101010101010101010101101010101 0
#81545
b10101010101010101010101010101010 0
#82585
b10101010101010101010101010101010 0
#83627
b10101010101010101010101010101010 0
#84670
b10101010101010101010101010101010 0
#85711
b10101010101010101010101010101010 0
#86752
b10101010101010101010101010101010 0
#87794
b10101010101010101010101010101010 0
#88837
b10101010101010101010101010101010 0
#89878
b10101010101010101010101010101010 0
#90919
b10101010101010101010101010101010 0
#91961
b10101010101010101010101010101010 0
#93004
b10101010101010101010101010101010 0
#94045
b10101010101010101010101010101010 0
#95085
b10101010101010101010101010101010 0
#96127
b10101010101010101010101010101010 0
#97170
b10101010101010101010101010101010 0
#98211
b10101010101010101010101010101010 0
#99252
b10101010101010101010101010101010 0
#100294
b10101010101010101010101010101010 0
#101337
b10101010101010101010101010101010 0
#102378
b10101010101010101010101010101010 0
#103419
b10101010101010101010101010101010 0
#104461
b10101010101010101010101010101010 0
#105504
b10101010101010101010101010101010 0
#106545
b10101010101010101010101010101010 0
#107585
b10101010101010101010101010101010 0
#108627
b10101010101010101010101010101010 0
#109670
b10101010101010101010101010101010 0
#110711
b10101010101010101010101010101010 0
#111752
b10101010101010101010101010101010 0
#112794
b10101010101010101010101010101010 0
#113837
b10101010101010101010101010101010 0
#114878
b10101010101010101010101010101010 0
#115919
b10101010101010101010101010101010 0
#116961
b10101010101010101010101010101010 0
#118004
b10101010101010101010101010101010 0
#119045
b10101010101010101010101010101010 0
#120085
b10101010101010101010101010101010 0
#121127
b10101010101010101010101010101010 0
#122170
b10101010101010101010101010101010 0
#123211
b10101010101010101010101010101010 0
#124252
b10101010101010101010101010101010 0
#125294
b10101010101010101010101010101010 0
#126337
b10101010101010101010101010101010 0
#127378
b10101010101010101010101010101010 0
#128419
b10101010101010101010101010101010 0
#129461
b10101010101010101010101010101010 0
#130504
b10101010101010101010101010101010 0
#131545
b10101010101010101010101010101010 0
#132585
b10101010101010101010101010101010 0
#133627
b10101010101010101010101010101010 0
#134670
b10101010101010101010101010101010 0
#135711
b10101010101010101010101010101010 0
#136752
b10101010101010101010101010101010 0
#137794
b10101010101010101010101010101010 0
#138837
b10101010101010101010101010101010 0
#139878
b10101010101010101010101010101010 0
#140919
b10101010101010101010101010101010 0
#141961
b10101010101010101010101010101010 0
#143004
b10101010101010101010101010101010 0
#144045
b10101010101010101010101010101010 0
#145085
b10101010101010101010101010101010 0
#146127
b10101010101010101010101010101010 0
#147170
b10101010101010101010101010101010 0
#148211
b10101010101010101010101010101010 0
#149252
b10101010101010101010101010101010 0
#150294
b10101010101010101010101010101010 0
#151337
b10101010101010101010101010101010 0
#152378
b10101010101010101010101010101010 0
#153419
b10101010101010101010101010101010 0
#154460
b10101010101010101010101010101010 0
#155504
b10101010101010101010101010101010 0
#156545
b10101010101010101010101010101010 0
#157585
b10101010101010101010101010101010 0
#158627
b10101010101010101010101010101010 0
#159670
b10101010101010101010101010101010 0
#160711
b10101010101010101010101010101010 0
#161752
b10101010101010101010101010101010 0
#162794
b10101010101010101010101010101010 0
#163837
b10101010101010101010101010101010 0
#164878
b10101010101010101010101010101010 0
#165919
b10101010101010101010101010101010 0
#166960
b10101010101010101010101010101010 0
#168004
b10101010101010101010101010101010 0
#169045
b10101010101010101010101010101010 0
#170085
b10101010101010101010101010101010 0
#171127
b10101010101010101010101010101010 0
#172170
b10101010101010101010101010101010 0
#173211
b10101010101010101010101010101010 0
#174252
b10101010101010101010101010101010 0
#175294
b10101010101010101010101010101010 0
#176337
b10101010101010101010101010101010 0
#177378
b10101010101010101010101010101010 0
#178419
b10101010101010101010101010101010 0
#179460
b10101010101010101010101010101010 0
#180504
b10101010101010101010101010101010 0
#181545
b10101010101010101010101010101010 0
#182585
b10101010101010101010101010101010 0
#183627
b10101010101010101010101010101010 0
#184670
b10101010101010101010101010101010 0
#185711
b10101010101010101010101010101010 0
#186752
b10101010101010101010101010101010 0
#187794
b10101010101010101010101010101010 0
#188837
b10101010101010101010101010101010 0
#189878
b10101010101010101010101010101010 0
#190919
b10101010101010101010101010101010 0
#191961
b10101010101010101010101010101010 0
#193004
b10101010101010101010101010101010 0
#194045
b10101010101010101010101010101010 0
#195085
b10101010101010101010101010101010 0
#196127
b10101010101010101010101010101010 0
#197170
b10101010101010101010101010101010 0
#198211
b10101010101010101010101010101010 0
#199252
b10101010101010101010101010101010 0
#200294
b10101010101010101010101010101010 0
#201337
b10101010101010101010101010101010 0
#202378
b10101010101010101010101010101010 0
#203419
b10101010101010101010101010101010 0
#204461
b10101010101010101010101010101010 0
#205504
b10101010101010101010101010101010 0
#206545
b10101010101010101010101010101010 0
#207585
b10101010101010101010101010101010 0
#208627
b10101010101010101010101010101010 0
#209670
b10101010101010101010101010101010 0
#210711
b10101010101010101010101010101010 0
#211752
b10101010101010101010101010101010 0
#212794
b10101010101010101010101010101010 0
#213837
b10101010101010101010101010101010 0
#214878
b10101010101010101010101010101010 0
#215918
b10101010101010101010101010101010 0
#216961
b10101010101010101010101010101010 0
#218004
b10101010101010101010101010101010 0
#219045
b10101010101010101010101010101010 0
#220085
b10101010101010101010101010101010 0
#221127
b10101010101010101010101010101010 0
#222170
b10101010101010101010101010101010 0
#223211
b10101010101010101010101010101010 0
#224252
b10101010101010101010101010101010 0
#225294
b10101010101010101010101010101010 0
#226337
b10101010101010101010101010101010 0
#227378
b10101010101010101010101010101010 0
#228419
b10101010101010101010101010101010 0
#229461
b10101010101010101010101010101010 0
#230504
b10101010101010101010101010101010 0
#231544
b10101010101010101010101010101010 0
#232585
b10101010101010101010101010101010 0
#233627
b10101010101010101010101010101010 0
#234670
b10101010101010101010101010101010 0
#235711
b10101010101010101010101010101010 0
#236752
b10101010101010101010101010101010 0
#237794
b10101010101010101010101010101010 0
#238837
b10101010101010101010101010101010 0
#239878
b10101010101010101010101010101010 0
#240919
b10101010101010101010101010101010 0
#241961
b10101010101010101010101010101010 0
#243004
b10101010101010101010101010101010 0
#244045
b10101010101010101010101010101010 0
#245085
b10101010101010101010101010101010 0
#246127
b10101010101010101010101010101010 0
#247170
b10101010101010101010101010101010 0
#248211
b10101010101010101010101010101010 0
#249252
b10101010101010101010101010101010 0
#250294
b10101010101010101010101010101010 0
#251337
b10101010101010101010101010101010 0
#252378
b10101010101010101010101010101010 0
#253418
b10101010101010101010101010101010 0
#254461
b10101010101010101010101010101010 0
#255504
b10101010101010101010101010101010 0
#256545
b10101010101010101010101010101010 0
#257585
b10101010101010101010101010101010 0
#258627
b10101010101010101010101010101010 0
#259670
b10101010101010101010101010101010 0
#260711
b10101010101010101010101010101010 0
#261752
b10101010101010101010101010101010 0
#262794
b10101010101010101010101010101010 0
#263837
b10101010101010101010101010101010 0
#264878
b10101010101010101010101010101010 0
#265919
b10101010101010101010101010101010 0
#266961
b10101010101010101010101010101010 0
#268004
b10101010101010101010101010101010 0
#269045
b10101010101010101010101010101010 0
#270085
b10101010101010101010101010101010 0
#271127
b10101010101010101010101010101010 0
#272170
b10101010101010101010101010101010 0
#273211
b10101010101010101010101010101010 0
#274252
b10101010101010101010101010101010 0
#275294
b10101010101010101010101010101010 0
#276337
b10101010101010101010101010101010 0
#277378
b10101010101010101010101010101010 0
#278419
b10101010101010101010101010101010 0
#279461
b10101010101010101010101010101010 0
#280504
b10101010101010101010101010101010 0
#281545
b10101010101010101010101010101010 0
#282585
b10101010101010101010101010101010 0
#283627
b10101010101010101010101010101010 0
#284670
b10101010101010101010101010101010 0
#285711
b10101010101010101010101010101010 0
#286752
b10101010101010101010101010101010 0
#287794
b10101010101010101010101010101010 0
#288837
b10101010101010101010101010101010 0
#289878
b10101010101010101010101010101010 0
#290919
b10101010101010101010101010101010 0
#291961
b10101010101010101010101010101010 0
#293004
b10101010101010101010101010101010 0
#294045
b10101010101010101010101010101010 0
#295085
b10101010101010101010101010101010 0
#296127
b10101010101010101010101010101010 0
#297170
b10101010101010101010101010101010 0
#298211
b10101010101010101010101010101010 0
#299252
b10101010101010101010101010101010 0
#300294
b10101010101010101010101010101010 0
#301337
b10101010101010101010101010101010 0
#302378
b10101010101010101010101010101010 0
#303419
b10101010101010101010101010101010 0
#304461
b10101010101010101010101010101010 0
#305504
b10101010101010101010101010101010 0
#306545
b10101010101010101010101010101010 0
#307585
b10101010101010101010101010101010 0
#308627
b10101010101010101010101010101010 0
#309670
b10101010101010101010101010101010 0
#310711
b10101010101010101010101010101010 0
#311752
b10101010101010101010101010101010 0
#312794
b10101010101010101010101010101010 0
#313837
b10101010101010101010101010101010 0
#314878
b10101010101010101010101010101010 0
#315919
b10101010101010101010101010101010 0
#316960
b10101010101010101010101010101010 0
#318004
b10101010101010101010101010101010 0
#319045
b10101010101010101010101010101010 0
#320085
b10101010101010101010101010101010 0
#321127
b10101010101010101010101010101010 0
#322170
b10101010101010101010101010101010 0
#323211
b10101010101010101010101010101010 0
#324252
b10101010101010101010101010101010 0
#325294
b10101010101010101010101010101010 0
#326337
b10101010101010101010101010101010 0
#327378
b10101010101010101010101010101010 0
#328419
b10101010101010101010101010101010 0
#329461
b10101010101010101010101010101010 0
#330504
b10101010101010101010101010101010 0
#331545
b10101010101010101010101010101010 0
#332585
b10101010101010101010101010101010 0
#333627
b10101010101010101010101010101010 0
#334670
b10101010101010101010101010101010 0
#335711
b10101010101010101010101010101010 0
#336752
b10101010101010101010101010101010 0
#337794
b10101010101010101010101010101010 0
#338837
b10101010101010101010101010101010 0
#339878
b10101010101010101010101010101010 0
#340919
b10101010101010101010101010101010 0
#341961
b10101010101010101010101010101010 0
#343004
b10101010101010101010101010101010 0
#344045
b10101010101010101010101010101010 0
#345085
b10101010101010101010101010101010 0
#346127
b10101010101010101010101010101010 0
#347170
b10101010101010101010101010101010 0
#348211
b10101010101010101010101010101010 0
#349252
b10101010101010101010101010101010 0
#350294
b10101010101010101010101010101010 0
#351337
b10101010101010101010101010101010 0
#352378
b10101010101010101010101010101010 0
#353418
b10101010101010101010101010101010 0
#354461
b10101010101010101010101010101010 0
#355504
b10101010101010101010101010101010 0
#356545
b10101010101010101010101010101010 0
#357585
b10101010101010101010101010101010 0
#358627
b10101010101010101010101010101010 0
#359670
b10101010101010101010101010101010 0
#360711
b10101010101010101010101010101010 0
#361752
b10101010101010101010101010101010 0
#362794
b10101010101010101010101010101010 0
#363837
b10101010101010101010101010101010 0
#364878
b10101010101010101010101010101010 0
#365919
b10101010101010101010101010101010 0
#366960
b10101010101010101010101010101010 0
#368004
b10101010101010101010101010101010 0
#369045
b10101010101010101010101010101010 0
#370085
b10101010101010101010101010101010 0
#371127
b10101010101010101010101010101010 0
#372170
b10101010101010101010101010101010 0
#373211
b10101010101010101010101010101010 0
#374252
b10101010101010101010101010101010 0
#375294
b10101010101010101010101010101010 0
#376337
b10101010101010101010101010101010 0
#377378
b10101010101010101010101010101010 0
#378419
b10101010101010101010101010101010 0
#379461
b10101010101010101010101010101010 0
#380504
b10101010101010101010101010101010 0
#381545
b10101010101010101010101010101010 0
#382585
b10101010101010101010101010101010 0
#383627
b10101010101010101010101010101010 0
#384670
b10101010101010101010101010101010 0
#385711
b10101010101010101010101010101010 0
#386752
b10101010101010101010101010101010 0
#387794
b10101010101010101010101010101010 0
#388837
b10101010101010101010101010101010 0
#389878
b10101010101010101010101010101010 0
#390919
b10101010101010101010101010101010 0
#391961
b10101010101010101010101010101010 0
#393004
b10101010101010101010101010101010 0
#394045
b10101010101010101010101010101010 0
#395085
b10101010101010101010101010101010 0
#396127
b10101010101010101010101010101010 0
#397170
b10101010101010101010101010101010 0
#398211
b10101010101010101010101010101010 0
#399252
b10101010101010101010101010101010 0
#400294
b10101010101010101010101010101010 0
#401337
b10101010101010101010101010101010 0
#402378
b10101010101010101010101010101010 0
#403419
b10101010101010101010101010101010 0
#404461
b10101010101010101010101010101010 0
#405504
b10101010101010101010101010101010 0
#406545
b10101010101010101010101010101010 0
#407585
b10101010101010101010101010101010 0
#408627
b10101010101010101010101010101010 0
#409670
b10101010101010101010101010101010 0
#410711
b10101010101010101010101010101010 0
#411752
b10101010101010101010101010101010 0
#412794
b10101010101010101010101010101010 0
#413837
b10101010101010101010101010101010 0
#414878
b10101010101010101010101010101010 0
#415919
b10101010101010101010101010101010 0
#416960
b10101010101010101010101010101010 0
#418004
b10101010101010101010101010101010 0
#419045
b10101010101010101010101010101010 0
#420085
b10101010101010101010101010101010 0
#421127
b10101010101010101010101010101010 0
#422170
b10101010101010101010101010101010 0
#423211
b10101010101010101010101010101010 0
#424252
b10101010101010101010101010101010 0
#425294
b10101010101010101010101010101010 0
#426337
b10101010101010101010101010101010 0
#427378
b10101010101010101010101010101010 0
#428419
b10101010101010101010101010101010 0
#429461
b10101010101010101010101010101010 0
#430504
b10101010101010101010101010101010 0
#431545
b10101010101010101010101010101010 0
#432585
b10101010101010101010101010101010 0
#433627
b10101010101010101010101010101010 0
#434670
b10101010101010101010101010101010 0
#435711
b10101010101010101010101010101010 0
#436752
b10101010101010101010101010101010 0
#437794
b10101010101010101010101010101010 0
#438837
b10101010101010101010101010101010 0
#439878
b10101010101010101010101010101010 0
#440919
b10101010101010101010101010101010 0
#441961
b10101010101010101010101010101010 0
#443004
b10101010101010101010101010101010 0
#444045
b10101010101010101010101010101010 0
#445085
b10101010101010101010101010101010 0
#446127
b10101010101010101010101010101010 0
#447170
b10101010101010101010101010101010 0
#448211
b10101010101010101010101010101010 0
#449252
b10101010101010101010101010101010 0
#450294
b10101010101010101010101010101010 0
#451337
b10101010101010101010101010101010 0
#452378
b10101010101010101010101010101010 0
#453419
b10101010101010101010101010101010 0
#454460
b10101010101010101010101010101010 0
#455504
b10101010101010101010101010101010 0
#456545
b10101010101010101010101010101010 0
#457585
b10101010101010101010101010101010 0
#458627
b10101010101010101010101010101010 0
#459670
b10101010101010101010101010101010 0
#460711
b10101010101010101010101010101010 0
#461752
b10101010101010101010101010101010 0
#462794
b10101010101010101010101010101010 0
#463837
b10101010101010101010101010101010 0
#464878
b10101010101010101010101010101010 0
#465919
b10101010101010101010101010101010 0
#466961
b10101010101010101010101010101010 0
#468004
b10101010101010101010101010101010 0
#469045
b10101010101010101010101010101010 0
#470085
b10101010101010101010101010101010 0
#471127
b10101010101010101010101010101010 0
#472170
b10101010101010101010101010101010 0
#473211
b10101010101010101010101010101010 0
#474252
b10101010101010101010101010101010 0
#475294
b10101010101010101010101010101010 0
#476337
b10101010101010101010101010101010 0
#477378
b10101010101010101010101010101010 0
#478419
b10101010101010101010101010101010 0
#479461
b10101010101010101010101010101010 0
#480504
b10101010101010101010101010101010 0
#481545
b10101010101010101010101010101010 0
#482585
b10101010101010101010101010101010 0
#483627
b10101010101010101010101010101010 0
#484670
b10101010101010101010101010101010 0
#485711
b10101010101010101010101010101010 0
#486752
b10101010101010101010101010101010 0
#487794
b10101010101010101010101010101010 0
#488837
b10101010101010101010101010101010 0
#489878
b10101010101010101010101010101010 0
#490919
b10101010101010101010101010101010 0
#491961
b10101010101010101010101010101010 0
#493004
b10101010101010101010101010101010 0
#494045
b10101010101010101010101010101010 0
#495085
b10101010101010101010101010101010 0
#496127
b10101010101010101010101010101010 0
#497170
b10101010101010101010101010101010 0
#498211
b10101010101010101010101010101010 0
#499252
b10101010101010101010101010101010 0
#500294
b10101010101010101010101010101010 0
#501337
b10101010101010101010101010101010 0
#502378
b10101010101010101010101010101010 0
#503419
b10101010101010101010101010101010 0
#504461
b10101010101010101010101010101010 0
#505504
b10101010101010101010101010101010 0
#506545
b10101010101010101010101010101010 0
#507585
b10101010101010101010101010101010 0
#508627
b10101010101010101010101010101010 0
#509670
b10101010101010101010101010101010 0
#510711
b10101010101010101010101010101010 0
#511752
b10101010101010101010101010101010 0
#512794
b10101010101010101010101010101010 0
#513837
b10101010101010101010101010101010 0
#514878
b10101010101010101010101010101010 0
#515919
b10101010101010101010101010101010 0
#516960
b10101010101010101010101010101010 0
#518004
b10101010101010101010101010101010 0
#519045
b10101010101010101010101010101010 0
#520085
b10101010101010101010101010101010 0
#521127
b10101010101010101010101010101010 0
#522170
b10101010101010101010101010101010 0
#523211
b10101010101010101010101010101010 0
#524252
b10101010101010101010101010101010 0
#525294
b10101010101010101010101010101010 0
#526337
b10101010101010101010101010101010 0
#527378
b10101010101010101010101010101010 0
#528419
b10101010101010101010101010101010 0
#529461
b10101010101010101010101010101010 0
#530504
b10101010101010101010101010101010 0
#531545
b10101010101010101010101010101010 0
#532585
b10101010101010101010101010101010 0
#533627
b10101010101010101010101010101010 0
#534670
b10101010101010101010101010101010 0
#535711
b10101010101010101010101010101010 0
#536752
b10101010101010101010101010101010 0
#537794
b10101010101010101010101010101010 0
#538837
b10101010101010101010101010101010 0
#539878
b10101010101010101010101010101010 0
#540919
b10101010101010101010101010101010 0
#541961
b10101010101010101010101010101010 0
#543004
b10101010101010101010101010101010 0
#544045
b10101010101010101010101010101010 0
#545085
b10101010101010101010101010101010 0
#546127
b10101010101010101010101010101010 0
#547170
b10101010101010101010101010101010 0
#548211
b10101010101010101010101010101010 0
#549252
b10101010101010101010101010101010 0
#550294
b10101010101010101010101010101010 0
#551337
b10101010101010101010101010101010 0
#552378
b10101010101010101010101010101010 0
#553419
b10101010101010101010101010101010 0
#554460
b10101010101010101010101010101010 0
#555504
b10101010101010101010101010101010 0
#556545
b10101010101010101010101010101010 0
#557585
b10101010101010101010101010101010 0
#558627
b10101010101010101010101010101010 0
#559670
b10101010101010101010101010101010 0
#560711
b10101010101010101010101010101010 0
#561752
b10101010101010101010101010101010 0
#562794
b10101010101010101010101010101010 0
#563837
b10101010101010101010101010101010 0
#564878
b10101010101010101010101010101010 0
#565919
b10101010101010101010101010101010 0
#566961
b10101010101010101010101010101010 0
#568004
b10101010101010101010101010101010 0
#569045
b10101010101010101010101010101010 0
#570085
b10101010101010101010101010101010 0
#571127
b10101010101010101010101010101010 0
#572170
b10101010101010101010101010101010 0
#573211
b10101010101010101010101010101010 0
#574252
b10101010101010101010101010101010 0
#575294
b10101010101010101010101010101010 0
#576337
b10101010101010101010101010101010 0
#577378
b10101010101010101010101010101010 0
#578419
b10101010101010101010101010101010 0
#579460
b10101010101010101010101010101010 0
#580504
b10101010101010101010101010101010 0
#581545
b10101010101010101010101010101010 0
#582585
b10101010101010101010101010101010 0
#583627
b10101010101010101010101010101010 0
#584670
b10101010101010101010101010101010 0
#585711
b10101010101010101010101010101010 0
#586752
b10101010101010101010101010101010 0
#587794
b10101010101010101010101010101010 0
#588837
b10101010101010101010101010101010 0
#589878
b10101010101010101010101010101010 0
#590919
b10101010101010101010101010101010 0
#591961
b10101010101010101010101010101010 0
#593004
b10101010101010101010101010101010 0
#594045
b10101010101010101010101010101010 0
#595085
b10101010101010101010101010101010 0
#596127
b10101010101010101010101010101010 0
#597170
b10101010101010101010101010101010 0
#598211
b10101010101010101010101010101010 0
#599252
b10101010101010101010101010101010 0
#600294
b10101010101010101010101010101010 0
#601337
b10101010101010101010101010101010 0
#602378
b10101010101010101010101010101010 0
#603419
b10101010101010101010101010101010 0
#604461
b10101010101010101010101010101010 0
#605504
b10101010101010101010101010101010 0
#606545
b10101010101010101010101010101010 0
#607585
b10101010101010101010101010101010 0
#608627
b10101010101010101010101010101010 0
#609670
b10101010101010101010101010101010 0
#610711
b10101010101010101010101010101010 0
#611752
b10101010101010101010101010101010 0
#612794
b10101010101010101010101010101010 0
#613837
b10101010101010101010101010101010 0
#614878
b10101010101010101010101010101010 0
#615919
b10101010101010101010101010101010 0
#616961
b10101010101010101010101010101010 0
#618004
b10101010101010101010101010101010 0
#619045
b10101010101010101010101010101010 0
#620085
b10101010101010101010101010101010 0
#621127
b10101010101010101010101010101010 0
#622170
b10101010101010101010101010101010 0
#623211
b10101010101010101010101010101010 0
#624252
b10101010101010101010101010101010 0
#625294
b10101010101010101010101010101010 0
#626337
b10101010101010101010101010101010 0
#627378
b10101010101010101010101010101010 0
#628419
b10101010101010101010101010101010 0
#629461
b10101010101010101010101010101010 0
#630504
b10101010101010101010101010101010 0
#631545
b10101010101010101010101010101010 0
#632585
b10101010101010101010101010101010 0
#633627
b10101010101010101010101010101010 0
#634670
b10101010101010101010101010101010 0
#635711
b10101010101010101010101010101010 0
#636752
b10101010101010101010101010101010 0
#637794
b10101010101010101010101010101010 0
#638837
b10101010101010101010101010101010 0
#639878
b10101010101010101010101010101010 0
#640919
b10101010101010101010101010101010 0
#641960
b10101010101010101010101010101010 0
#643004
b10101010101010101010101010101010 0
#644045
b10101010101010101010101010101010 0
#645085
b10101010101010101010101010101010 0
#646127
b10101010101010101010101010101010 0
#647170
b10101010101010101010101010101010 0
#648211
b10101010101010101010101010101010 0
#649252
b10101010101010101010101010101010 0
#650294
b10101010101010101010101010101010 0
#651337
b10101010101010101010101010101010 0
#652378
b10101010101010101010101010101010 0
#653419
b10101010101010101010101010101010 0
#654461
b10101010101010101010101010101010 0
#655504
b10101010101010101010101010101010 0
#656545
b10101010101010101010101010101010 0
#657585
b10101010101010101010101010101010 0
#658627
b10101010101010101010101010101010 0
#659670
b10101010101010101010101010101010 0
#660711
b10101010101010101010101010101010 0
#661752
b10101010101010101010101010101010 0
#662794
b10101010101010101010101010101010 0
#663837
b10101010101010101010101010101010 0
#664878
b10101010101010101010101010101010 0
#665919
b10101010101010101010101010101010 0
#666961
b10101010101010101010101010101010 0
#668004
b10101010101010101010101010101010 0
#669045
b10101010101010101010101010101010 0
#670085
b10101010101010101010101010101010 0
#671127
b10101010101010101010101010101010 0
#672170
b10101010101010101010101010101010 0
#673211
b10101010101010101010101010101010 0
#674252
b10101010101010101010101010101010 0
#675294
b10101010101010101010101010101010 0
#676337
b10101010101010101010101010101010 0
#677378
b10101010101010101010101010101010 0
#678419
b10101010101010101010101010101010 0
#679461
b10101010101010101010101010101010 0
#680504
b10101010101010101010101010101010 0
#681545
b10101010101010101010101010101010 0
#682585
b10101010101010101010101010101010 0
#683627
b10101010101010101010101010101010 0
#684670
b10101010101010101010101010101010 0
#685711
b10101010101010101010101010101010 0
#686752
b10101010101010101010101010101010 0
#687794
b10101010101010101010101010101010 0
#688837
b10101010101010101010101010101010 0
#689878
b10101010101010101010101010101010 0
#690919
b10101010101010101010101010101010 0
#691960
b10101010101010101010101010101010 0
#693004
b10101010101010101010101010101010 0
#694045
b10101010101010101010101010101010 0
#695085
b10101010101010101010101010101010 0
#696127
b10101010101010101010101010101010 0
#697170
b10101010101010101010101010101010 0
#698211
b10101010101010101010101010101010 0
#699252
b10101010101010101010101010101010 0
#700294
b10101010101010101010101010101010 0
#701337
b10101010101010101010101010101010 0
#702378
b10101010101010101010101010101010 0
#703419
b10101010101010101010101010101010 0
#704461
b10101010101010101010101010101010 0
#705504
b10101010101010101010101010101010 0
#706545
b10101010101010101010101010101010 0
#707585
b10101010101010101010101010101010 0
#708627
b10101010101010101010101010101010 0
#709670
b10101010101010101010101010101010 0
#710711
b10101010101010101010101010101010 0
#711752
b10101010101010101010101010101010 0
#712794
b10101010101010101010101010101010 0
#713837
b10101010101010101010101010101010 0
#714878
b10101010101010101010101010101010 0
#715919
b10101010101010101010101010101010 0
#716961
b10101010101010101010101010101010 0
#718004
b10101010101010101010101010101010 0
#719045
b10101010101010101010101010101010 0
#720085
b10101010101010101010101010101010 0
#721127
b10101010101010101010101010101010 0
#722170
b10101010101010101010101010101010 0
#723211
b10101010101010101010101010101010 0
#724252
b10101010101010101010101010101010 0
#725294
b10101010101010101010101010101010 0
#726337
b10101010101010101010101010101010 0
#727378
b10101010101010101010101010101010 0
#728419
b10101010101010101010101010101010 0
#729461
b10101010101010101010101010101010 0
#730504
b10101010101010101010101010101010 0
#731545
b10101010101010101010101010101010 0
#732585
b10101010101010101010101010101010 0
#733627
b10101010101010101010101010101010 0